<?xml version="1.0" encoding="UTF-8" standalone="no"?>
<!-- Created with Inkscape (http://www.inkscape.org/) -->

<svg
   xmlns:dc="http://purl.org/dc/elements/1.1/"
   xmlns:cc="http://creativecommons.org/ns#"
   xmlns:rdf="http://www.w3.org/1999/02/22-rdf-syntax-ns#"
   xmlns:svg="http://www.w3.org/2000/svg"
   xmlns="http://www.w3.org/2000/svg"
   xmlns:sodipodi="http://sodipodi.sourceforge.net/DTD/sodipodi-0.dtd"
   xmlns:inkscape="http://www.inkscape.org/namespaces/inkscape"
   width="210mm"
   height="297mm"
   viewBox="0 0 210 297"
   version="1.1"
   id="svg8"
   inkscape:version="0.92.1 r"
   sodipodi:docname="ellipse_01.svg">
  <defs
     id="defs2" />
  <sodipodi:namedview
     id="base"
     pagecolor="#ffffff"
     bordercolor="#666666"
     borderopacity="1.0"
     inkscape:pageopacity="0.0"
     inkscape:pageshadow="2"
     inkscape:zoom="2"
     inkscape:cx="342.39997"
     inkscape:cy="714.55696"
     inkscape:document-units="mm"
     inkscape:current-layer="layer1"
     showgrid="false"
     inkscape:window-width="1916"
     inkscape:window-height="570"
     inkscape:window-x="1366"
     inkscape:window-y="609"
     inkscape:window-maximized="0" />
  <metadata
     id="metadata5">
    <rdf:RDF>
      <cc:Work
         rdf:about="">
        <dc:format>image/svg+xml</dc:format>
        <dc:type
           rdf:resource="http://purl.org/dc/dcmitype/StillImage" />
        <dc:title></dc:title>
      </cc:Work>
    </rdf:RDF>
  </metadata>
  <g
     inkscape:label="Layer 1"
     inkscape:groupmode="layer"
     id="layer1">
    <ellipse
       id="path3680"
       cx="91.005272"
       cy="92.67244"
       rx="43.965836"
       ry="23.386084"
       style="stroke-width:0.26458332;fill-opacity:1;fill:#d04e5a" />
    <path
       style="fill:none;stroke:#000000;stroke-width:0.2192136px;stroke-linecap:butt;stroke-linejoin:miter;stroke-opacity:1"
       d="M 47.039436,92.67244 H 134.92045"
       id="path4495"
       inkscape:connector-curvature="0" />
    <path
       style="fill:none;stroke:#000000;stroke-width:0.18802647px;stroke-linecap:butt;stroke-linejoin:miter;stroke-opacity:1"
       d="M 91.005272,69.286356 V 116.12367"
       id="path4497"
       inkscape:connector-curvature="0" />
    <text
       xml:space="preserve"
       style="font-style:normal;font-weight:normal;font-size:3.61178923px;line-height:1.25;font-family:sans-serif;letter-spacing:0px;word-spacing:0px;fill:#000000;fill-opacity:1;stroke:none;stroke-width:0.09029473"
       x="64.00087"
       y="91.678261"
       id="text4501"><tspan
         sodipodi:role="line"
         id="tspan4499"
         x="64.00087"
         y="91.678261"
         style="stroke-width:0.09029473">major</tspan></text>
    <text
       xml:space="preserve"
       style="font-style:normal;font-weight:normal;font-size:3.61178923px;line-height:1.25;font-family:sans-serif;letter-spacing:0px;word-spacing:0px;fill:#000000;fill-opacity:1;stroke:none;stroke-width:0.09029473"
       x="80.213821"
       y="82.096413"
       id="text4501-7"><tspan
         sodipodi:role="line"
         id="tspan4499-5"
         x="80.213821"
         y="82.096413"
         style="stroke-width:0.09029473">minor</tspan></text>
  </g>
</svg>
