%!PS-Adobe-3.0 EPSF-3.0 
%%BoundingBox: 0 0 640 341
%%Pages: 0
%%Creator: LibreOffice 4.3
%%Title: none
%%CreationDate: none
%%LanguageLevel: 2
%%EndComments
%%BeginProlog
%%BeginResource: procset SDRes-Prolog 1.0 0
/b4_inc_state save def
/dict_count countdictstack def
/op_count count 1 sub def
userdict begin
0 setgray 0 setlinecap 1 setlinewidth 0 setlinejoin 10 setmiterlimit[] 0 setdash newpath
/languagelevel where {pop languagelevel 1 ne {false setstrokeadjust false setoverprint} if} if
/bdef {bind def} bind def
/c {setrgbcolor} bdef
/l {neg lineto} bdef
/rl {neg rlineto} bdef
/lc {setlinecap} bdef
/lj {setlinejoin} bdef
/lw {setlinewidth} bdef
/ml {setmiterlimit} bdef
/ld {setdash} bdef
/m {neg moveto} bdef
/ct {6 2 roll neg 6 2 roll neg 6 2 roll neg curveto} bdef
/r {rotate} bdef
/t {neg translate} bdef
/s {scale} bdef
/sw {show} bdef
/gs {gsave} bdef
/gr {grestore} bdef
/f {findfont dup length dict begin
{1 index /FID ne {def} {pop pop} ifelse} forall /Encoding ISOLatin1Encoding def
currentdict end /NFont exch definefont pop /NFont findfont} bdef
/p {closepath} bdef
/sf {scalefont setfont} bdef
/ef {eofill}bdef
/pc {closepath stroke}bdef
/ps {stroke}bdef
/pum {matrix currentmatrix}bdef
/pom {setmatrix}bdef
/bs {/aString exch def /nXOfs exch def /nWidth exch def currentpoint nXOfs 0 rmoveto pum nWidth aString stringwidth pop div 1 scale aString show pom moveto} bdef
%%EndResource
%%EndProlog
%%BeginSetup
%%EndSetup
%%Page: 1 1
%%BeginPageSetup
%%EndPageSetup
pum
0.02834 0.02831 s 
0 -12041 t
/tm matrix currentmatrix def
tm setmatrix
-6807 -7707 t 
1 1 s 
90.79843 lw 1 lj 0.773 0.003 0.046 c 7709 17986 m  8194 17986 8566 18358 8566 18843 ct 
8566 19328 8194 19700 7709 19700 ct 7225 19700 6853 19328 6853 18843 ct 6853 18358 7225 17986 7709 17986 ct 
pc
7709 15417 m  8194 15417 8566 15789 8566 16273 ct 8566 16758 8194 17130 7709 17130 ct 
7225 17130 6853 16758 6853 16273 ct 6853 15789 7225 15417 7709 15417 ct pc
7709 12847 m  8194 12847 8566 13219 8566 13704 ct 8566 14189 8194 14560 7709 14560 ct 
7225 14560 6853 14189 6853 13704 ct 6853 13219 7225 12847 7709 12847 ct pc
0.003 0.273 0.527 c 16276 17986 m  16761 17986 17133 18358 17133 18843 ct 17133 19328 16761 19700 16276 19700 ct 
15791 19700 15419 19328 15419 18843 ct 15419 18358 15791 17986 16276 17986 ct 
pc
16276 15417 m  16761 15417 17133 15789 17133 16273 ct 17133 16758 16761 17130 16276 17130 ct 
15791 17130 15419 16758 15419 16273 ct 15419 15789 15791 15417 16276 15417 ct 
pc
16276 12847 m  16761 12847 17133 13219 17133 13704 ct 17133 14189 16761 14560 16276 14560 ct 
15791 14560 15419 14189 15419 13704 ct 15419 13219 15791 12847 16276 12847 ct 
pc
0.343 0.617 0.113 c 24842 11134 m  25327 11134 25699 11506 25699 11991 ct 
25699 12476 25327 12847 24842 12847 ct 24358 12847 23986 12476 23986 11991 ct 
23986 11506 24358 11134 24842 11134 ct pc
0.773 0.003 0.046 c 7709 15417 m  7709 14560 l  ps
7709 17986 m  7709 17130 l  ps
0.003 0.273 0.527 c 16276 15417 m  16276 14560 l  ps
16276 17986 m  16276 17130 l  ps
0.933 0.933 0.933 c 8738 12848 m  13429 12848 l  14993 16274 l  13429 19700 l 
8738 19700 l  10300 16274 l  8738 12848 l  p ef
0.503 0.503 0.503 c 8737 12847 m  13428 12847 l  14993 16273 l  13428 19700 l 
8737 19700 l  10300 16273 l  8737 12847 l  pc
pum
10451 16485 t
pom
pum
11394 16485 t
0.402 0.402 0.402 c 251 -342 m  251 1 l  143 1 l  143 -342 l  45 -342 l 
45 -415 l  143 -415 l  143 -447 l  143 -463 145 -479 150 -495 ct 154 -510 163 -525 175 -538 ct 
187 -550 203 -561 224 -569 ct 245 -577 272 -581 305 -581 ct 331 -581 355 -580 376 -578 ct 
397 -575 415 -573 431 -570 ct 431 -500 l  415 -502 397 -503 379 -505 ct 361 -506 342 -507 324 -507 ct 
309 -507 297 -505 287 -502 ct 278 -499 271 -494 265 -488 ct 260 -482 256 -475 254 -466 ct 
252 -457 251 -448 251 -437 ct 251 -415 l  421 -415 l  421 -342 l  251 -342 l 
p ef
907 -208 m  907 -176 903 -147 895 -121 ct 888 -94 875 -72 859 -53 ct 842 -33 821 -19 796 -8 ct 
770 3 740 8 705 8 ct 671 8 642 3 617 -8 ct 592 -18 572 -33 555 -52 ct 539 -71 526 -94 518 -120 ct 
510 -147 506 -176 506 -208 ct 506 -239 510 -267 518 -294 ct 526 -320 537 -343 554 -362 ct 
570 -381 591 -396 616 -407 ct 642 -418 672 -423 707 -423 ct 745 -423 776 -418 802 -407 ct 
827 -396 848 -381 863 -362 ct 879 -343 890 -320 897 -294 ct 904 -268 907 -239 907 -208 ct 
p
795 -208 m  795 -232 793 -254 790 -271 ct 787 -289 782 -304 775 -315 ct 768 -327 759 -335 748 -341 ct 
737 -346 724 -349 709 -349 ct 677 -349 654 -338 640 -315 ct 627 -293 620 -257 620 -208 ct 
620 -158 627 -122 641 -100 ct 655 -77 676 -66 704 -66 ct 720 -66 734 -68 745 -74 ct 
757 -79 766 -88 773 -100 ct 781 -111 786 -126 789 -144 ct 793 -162 795 -183 795 -208 ct 
p ef
1357 -326 m  1345 -328 1332 -329 1319 -331 ct 1306 -332 1291 -333 1276 -333 ct 
1254 -333 1235 -328 1219 -320 ct 1203 -311 1189 -299 1178 -284 ct 1167 -269 1159 -252 1154 -232 ct 
1148 -212 1145 -191 1145 -168 ct 1145 0 l  1038 0 l  1038 -269 l  1038 -283 1037 -298 1036 -313 ct 
1034 -328 1032 -342 1030 -355 ct 1028 -368 1026 -380 1024 -390 ct 1021 -401 1020 -409 1018 -415 ct 
1122 -415 l  1124 -410 1125 -403 1127 -396 ct 1129 -389 1130 -382 1132 -374 ct 
1134 -366 1135 -358 1136 -350 ct 1138 -343 1139 -335 1140 -328 ct 1141 -328 l 
1147 -342 1153 -356 1160 -367 ct 1167 -379 1177 -389 1187 -397 ct 1198 -405 1211 -412 1226 -416 ct 
1240 -421 1258 -423 1278 -423 ct 1292 -423 1306 -422 1320 -421 ct 1334 -420 1346 -418 1357 -416 ct 
1357 -326 l  p ef
1747 0 m  1636 -188 l  1589 -156 l  1589 0 l  1481 0 l  1481 -570 l  1589 -570 l 
1589 -243 l  1737 -415 l  1853 -415 l  1707 -253 l  1864 0 l  1747 0 l 
p ef
pom
92 lw 0.343 0.617 0.113 c 24843 11135 m  24843 9925 l  ps
24843 9422 m  24668 9949 l  25019 9949 l  24843 9422 l  p ef
21701 7709 m  21559 7709 21416 7851 21416 7993 ct 21416 9137 l  21416 9280 21559 9423 21701 9423 ct 
27985 9423 l  28127 9423 28270 9280 28270 9137 ct 28270 7993 l  28270 7851 28127 7709 27985 7709 ct 
21701 7709 l  p ef
0 lw 21700 7708 m  21558 7708 21416 7850 21416 7993 ct 21416 9137 l  21416 9279 21558 9423 21700 9423 ct 
27985 9423 l  28127 9423 28269 9279 28269 9137 ct 28269 7993 l  28269 7850 28127 7708 27985 7708 ct 
21700 7708 l  pc
pum
22232 8757 t
1.000 1.000 1.000 c 146 -383 m  146 -382 147 -378 148 -373 ct 148 -369 149 -363 149 -357 ct 
150 -351 150 -345 151 -338 ct 151 -332 151 -326 151 -321 ct 153 -321 l  159 -334 166 -345 175 -354 ct 
183 -362 192 -370 202 -375 ct 211 -381 222 -385 232 -387 ct 243 -390 254 -391 264 -391 ct 
287 -391 307 -386 324 -376 ct 341 -366 355 -352 366 -335 ct 378 -317 386 -296 392 -272 ct 
398 -248 401 -221 401 -193 ct 401 -164 398 -137 392 -113 ct 387 -88 378 -67 366 -50 ct 
355 -32 340 -18 323 -8 ct 305 2 284 7 261 7 ct 250 7 239 5 229 3 ct 218 1 208 -3 198 -8 ct 
189 -14 180 -21 172 -29 ct 164 -38 158 -49 152 -61 ct 151 -61 l  151 -59 151 -55 151 -51 ct 
151 -46 152 -41 152 -35 ct 152 -29 152 -23 152 -16 ct 152 -10 152 -4 152 2 ct 152 150 l 
52 150 l  52 -300 l  52 -318 52 -335 51 -350 ct 51 -364 50 -375 50 -383 ct 146 -383 l 
p
150 -190 m  150 -165 153 -144 157 -127 ct 162 -111 168 -98 175 -88 ct 183 -78 191 -71 199 -67 ct 
208 -63 217 -61 225 -61 ct 236 -61 246 -63 255 -68 ct 264 -73 271 -81 277 -92 ct 
284 -102 288 -116 292 -133 ct 295 -149 297 -169 297 -193 ct 297 -236 291 -269 278 -290 ct 
266 -312 249 -323 226 -323 ct 218 -323 209 -321 200 -317 ct 191 -312 183 -305 176 -295 ct 
168 -285 162 -271 158 -254 ct 153 -237 150 -216 150 -190 ct p ef
582 -383 m  582 -168 l  582 -153 583 -140 586 -127 ct 588 -115 592 -104 597 -95 ct 
602 -87 608 -80 616 -75 ct 623 -70 633 -67 643 -67 ct 653 -67 663 -70 672 -75 ct 
681 -81 689 -88 695 -98 ct 702 -108 707 -119 711 -133 ct 715 -147 716 -161 716 -178 ct 
716 -383 l  816 -383 l  816 -86 l  816 -78 816 -69 816 -60 ct 816 -52 816 -43 817 -35 ct 
817 -27 818 -20 818 -14 ct 818 -8 819 -3 819 0 ct 724 0 l  724 -3 723 -7 723 -14 ct 
722 -20 722 -27 721 -34 ct 721 -42 721 -50 720 -57 ct 720 -65 720 -71 720 -76 ct 
718 -76 l  705 -47 688 -26 668 -13 ct 648 0 626 7 602 7 ct 580 7 561 3 546 -4 ct 
531 -12 518 -22 509 -35 ct 500 -48 493 -64 489 -82 ct 485 -100 483 -119 483 -140 ct 
483 -383 l  582 -383 l  p ef
1151 -67 m  1276 -67 l  1276 0 l  912 0 l  912 -67 l  1052 -67 l  1052 -458 l 
949 -458 l  949 -525 l  1151 -525 l  1151 -67 l  p ef
1587 -67 m  1712 -67 l  1712 0 l  1348 0 l  1348 -67 l  1488 -67 l  1488 -458 l 
1385 -458 l  1385 -525 l  1587 -525 l  1587 -67 l  p ef
2559 -300 m  2548 -302 2536 -304 2524 -305 ct 2512 -306 2498 -307 2484 -307 ct 
2464 -307 2446 -303 2431 -295 ct 2416 -287 2404 -276 2394 -262 ct 2384 -248 2376 -232 2371 -214 ct 
2366 -195 2364 -176 2364 -155 ct 2364 0 l  2265 0 l  2265 -248 l  2265 -261 2264 -275 2262 -288 ct 
2261 -302 2259 -315 2257 -327 ct 2256 -339 2254 -350 2251 -360 ct 2249 -370 2248 -377 2246 -383 ct 
2342 -383 l  2343 -378 2345 -372 2347 -365 ct 2348 -359 2350 -352 2351 -345 ct 
2353 -338 2354 -330 2355 -323 ct 2357 -316 2358 -309 2358 -302 ct 2360 -302 l 
2365 -316 2371 -328 2377 -339 ct 2384 -350 2392 -359 2402 -366 ct 2412 -374 2424 -380 2438 -384 ct 
2451 -388 2467 -390 2486 -390 ct 2499 -390 2512 -389 2525 -388 ct 2537 -387 2549 -386 2559 -384 ct 
2559 -300 l  p ef
2833 7 m  2805 7 2780 3 2757 -5 ct 2734 -13 2714 -26 2698 -42 ct 2682 -59 2669 -80 2660 -105 ct 
2651 -130 2646 -160 2646 -193 ct 2646 -230 2652 -261 2662 -286 ct 2673 -311 2687 -331 2704 -346 ct 
2722 -362 2742 -373 2764 -380 ct 2787 -387 2810 -390 2834 -390 ct 2864 -390 2890 -385 2912 -374 ct 
2935 -364 2953 -349 2967 -330 ct 2982 -311 2993 -289 3000 -263 ct 3007 -236 3011 -207 3011 -176 ct 
3011 -173 l  2751 -173 l  2751 -157 2753 -142 2756 -128 ct 2760 -114 2765 -102 2773 -92 ct 
2780 -82 2789 -74 2800 -68 ct 2811 -62 2823 -60 2838 -60 ct 2855 -60 2870 -63 2884 -71 ct 
2897 -78 2906 -90 2911 -105 ct 3005 -97 l  3001 -86 2994 -75 2986 -62 ct 2978 -50 2967 -39 2953 -29 ct 
2939 -18 2923 -10 2903 -3 ct 2883 4 2860 7 2833 7 ct p
2833 -327 m  2822 -327 2813 -326 2803 -322 ct 2793 -319 2785 -313 2778 -306 ct 
2770 -299 2764 -289 2759 -277 ct 2755 -266 2752 -251 2752 -235 ct 2914 -235 l 
2913 -250 2911 -264 2906 -275 ct 2901 -287 2896 -296 2888 -304 ct 2881 -312 2873 -318 2863 -322 ct 
2854 -325 2843 -327 2833 -327 ct p ef
3432 -383 m  3431 -375 3430 -364 3430 -350 ct 3429 -335 3429 -318 3429 -300 ct 
3429 150 l  3329 150 l  3329 2 l  3329 -4 3329 -10 3329 -16 ct 3330 -23 3330 -29 3330 -35 ct 
3330 -41 3330 -46 3330 -51 ct 3330 -55 3330 -59 3330 -61 ct 3329 -61 l  3324 -49 3317 -38 3308 -29 ct 
3300 -21 3291 -14 3281 -8 ct 3271 -3 3260 1 3249 3 ct 3238 5 3228 7 3217 7 ct 3193 7 3173 2 3155 -8 ct 
3138 -18 3124 -32 3113 -50 ct 3102 -67 3094 -88 3088 -113 ct 3083 -137 3080 -164 3080 -193 ct 
3080 -221 3083 -248 3090 -272 ct 3096 -296 3105 -317 3117 -335 ct 3129 -352 3143 -366 3161 -376 ct 
3178 -386 3198 -391 3220 -391 ct 3231 -391 3242 -390 3252 -387 ct 3262 -385 3272 -381 3281 -375 ct 
3290 -370 3299 -362 3307 -354 ct 3315 -345 3322 -334 3329 -321 ct 3330 -321 l 
3330 -326 3330 -332 3330 -338 ct 3331 -345 3331 -351 3332 -357 ct 3332 -363 3333 -369 3334 -373 ct 
3334 -378 3335 -382 3335 -383 ct 3432 -383 l  p
3331 -190 m  3331 -216 3328 -237 3324 -254 ct 3319 -271 3313 -285 3305 -295 ct 
3298 -305 3290 -312 3281 -317 ct 3272 -321 3263 -323 3255 -323 ct 3233 -323 3215 -312 3203 -290 ct 
3190 -269 3184 -236 3184 -193 ct 3184 -169 3186 -149 3189 -133 ct 3193 -116 3197 -102 3204 -92 ct 
3210 -81 3218 -73 3226 -68 ct 3235 -63 3245 -61 3256 -61 ct 3264 -61 3273 -63 3282 -67 ct 
3291 -71 3299 -78 3306 -88 ct 3313 -98 3319 -111 3324 -127 ct 3328 -144 3331 -165 3331 -190 ct 
p ef
3628 -383 m  3628 -168 l  3628 -153 3629 -140 3632 -127 ct 3634 -115 3638 -104 3643 -95 ct 
3648 -87 3654 -80 3662 -75 ct 3669 -70 3679 -67 3689 -67 ct 3699 -67 3709 -70 3718 -75 ct 
3727 -81 3735 -88 3741 -98 ct 3748 -108 3753 -119 3757 -133 ct 3761 -147 3762 -161 3762 -178 ct 
3762 -383 l  3862 -383 l  3862 -86 l  3862 -78 3862 -69 3862 -60 ct 3862 -52 3862 -43 3863 -35 ct 
3863 -27 3864 -20 3864 -14 ct 3864 -8 3865 -3 3865 0 ct 3770 0 l  3770 -3 3769 -7 3769 -14 ct 
3768 -20 3768 -27 3767 -34 ct 3767 -42 3767 -50 3766 -57 ct 3766 -65 3766 -71 3766 -76 ct 
3764 -76 l  3751 -47 3734 -26 3714 -13 ct 3694 0 3672 7 3648 7 ct 3626 7 3607 3 3592 -4 ct 
3577 -12 3564 -22 3555 -35 ct 3546 -48 3539 -64 3535 -82 ct 3531 -100 3529 -119 3529 -140 ct 
3529 -383 l  3628 -383 l  p ef
4139 7 m  4111 7 4086 3 4063 -5 ct 4040 -13 4020 -26 4004 -42 ct 3988 -59 3975 -80 3966 -105 ct 
3957 -130 3952 -160 3952 -193 ct 3952 -230 3958 -261 3968 -286 ct 3979 -311 3993 -331 4010 -346 ct 
4028 -362 4048 -373 4070 -380 ct 4093 -387 4116 -390 4140 -390 ct 4170 -390 4196 -385 4218 -374 ct 
4241 -364 4259 -349 4273 -330 ct 4288 -311 4299 -289 4306 -263 ct 4313 -236 4317 -207 4317 -176 ct 
4317 -173 l  4057 -173 l  4057 -157 4059 -142 4062 -128 ct 4066 -114 4071 -102 4079 -92 ct 
4086 -82 4095 -74 4106 -68 ct 4117 -62 4129 -60 4144 -60 ct 4161 -60 4176 -63 4190 -71 ct 
4203 -78 4212 -90 4217 -105 ct 4311 -97 l  4307 -86 4300 -75 4292 -62 ct 4284 -50 4273 -39 4259 -29 ct 
4245 -18 4229 -10 4209 -3 ct 4189 4 4166 7 4139 7 ct p
4139 -327 m  4128 -327 4119 -326 4109 -322 ct 4099 -319 4091 -313 4084 -306 ct 
4076 -299 4070 -289 4065 -277 ct 4061 -266 4058 -251 4058 -235 ct 4220 -235 l 
4219 -250 4217 -264 4212 -275 ct 4207 -287 4202 -296 4194 -304 ct 4187 -312 4179 -318 4169 -322 ct 
4160 -325 4149 -327 4139 -327 ct p ef
4743 -112 m  4743 -93 4739 -77 4731 -62 ct 4724 -48 4713 -35 4698 -25 ct 4683 -15 4665 -7 4644 -1 ct 
4623 4 4599 7 4571 7 ct 4547 7 4525 5 4506 2 ct 4486 -2 4469 -8 4454 -16 ct 4439 -24 4427 -35 4417 -47 ct 
4407 -60 4400 -77 4395 -96 ct 4482 -109 l  4485 -98 4489 -89 4494 -83 ct 4499 -76 4505 -71 4512 -68 ct 
4520 -64 4528 -62 4538 -61 ct 4548 -59 4559 -59 4571 -59 ct 4583 -59 4593 -59 4603 -61 ct 
4613 -62 4621 -64 4629 -67 ct 4636 -71 4641 -75 4645 -81 ct 4649 -87 4651 -94 4651 -103 ct 
4651 -113 4649 -120 4643 -126 ct 4637 -132 4629 -137 4619 -140 ct 4609 -144 4597 -147 4584 -150 ct 
4570 -153 4556 -156 4540 -159 ct 4524 -163 4508 -167 4493 -172 ct 4477 -177 4463 -184 4451 -192 ct 
4439 -201 4429 -211 4421 -225 ct 4414 -238 4410 -254 4410 -274 ct 4410 -292 4414 -309 4421 -323 ct 
4428 -337 4438 -349 4452 -359 ct 4466 -369 4482 -377 4503 -382 ct 4523 -388 4546 -390 4572 -390 ct 
4593 -390 4612 -388 4630 -384 ct 4648 -380 4664 -374 4678 -366 ct 4693 -358 4704 -347 4714 -334 ct 
4724 -321 4730 -305 4734 -287 ct 4646 -278 l  4644 -287 4641 -294 4637 -301 ct 
4633 -307 4627 -311 4621 -315 ct 4615 -318 4608 -321 4599 -322 ct 4591 -323 4582 -324 4572 -324 ct 
4549 -324 4531 -321 4519 -315 ct 4507 -309 4501 -299 4501 -285 ct 4501 -276 4504 -269 4509 -264 ct 
4513 -259 4520 -254 4529 -251 ct 4538 -248 4549 -245 4561 -242 ct 4573 -240 4586 -237 4601 -233 ct 
4618 -229 4636 -225 4653 -220 ct 4670 -215 4685 -208 4698 -199 ct 4712 -190 4722 -179 4731 -165 ct 
4739 -151 4743 -133 4743 -112 ct p ef
4903 -316 m  4844 -316 l  4844 -383 l  4908 -383 l  4939 -483 l  5002 -483 l 
5002 -383 l  5138 -383 l  5138 -316 l  5002 -316 l  5002 -128 l  5002 -120 5002 -111 5002 -104 ct 
5003 -96 5005 -89 5009 -83 ct 5013 -77 5019 -72 5028 -68 ct 5036 -65 5048 -63 5063 -63 ct 
5078 -63 5093 -64 5108 -65 ct 5124 -67 5139 -69 5153 -72 ct 5153 -7 l  5145 -5 5136 -3 5127 -2 ct 
5119 0 5110 1 5101 2 ct 5092 3 5082 4 5072 4 ct 5062 4 5051 4 5039 4 ct 5018 4 5001 2 4986 -1 ct 
4972 -5 4959 -9 4949 -15 ct 4939 -21 4931 -28 4925 -36 ct 4919 -44 4914 -52 4911 -62 ct 
4907 -71 4905 -80 4904 -90 ct 4903 -100 4902 -110 4902 -119 ct 4903 -316 l  p ef
pom
pum
7881 12620 t
0.003 0.003 0.003 c 210 0 m  210 -2 210 -4 210 -8 ct 211 -12 211 -17 212 -22 ct 
212 -27 213 -32 214 -38 ct 214 -43 215 -48 216 -52 ct 215 -52 l  207 -41 200 -32 192 -25 ct 
184 -18 176 -12 167 -7 ct 159 -3 149 1 140 3 ct 131 5 121 6 110 6 ct 95 6 83 3 71 -2 ct 
60 -7 51 -14 44 -24 ct 37 -34 32 -45 28 -59 ct 25 -72 23 -87 23 -103 ct 23 -112 23 -121 24 -130 ct 
25 -140 27 -149 29 -159 ct 33 -184 40 -206 49 -226 ct 57 -247 68 -264 81 -279 ct 
93 -294 107 -305 124 -313 ct 140 -321 158 -326 178 -326 ct 187 -326 195 -325 204 -323 ct 
212 -321 220 -317 227 -313 ct 234 -308 240 -303 246 -295 ct 251 -288 255 -279 258 -269 ct 
258 -269 l  259 -271 259 -274 260 -278 ct 261 -282 261 -286 262 -291 ct 263 -296 264 -301 265 -306 ct 
266 -312 267 -317 268 -322 ct 290 -439 l  373 -439 l  302 -70 l  299 -54 296 -40 295 -28 ct 
293 -16 292 -7 291 0 ct 210 0 l  p
238 -162 m  241 -178 243 -192 243 -205 ct 243 -217 241 -228 239 -236 ct 236 -244 232 -251 228 -256 ct 
223 -260 219 -264 213 -266 ct 208 -268 202 -269 196 -269 ct 187 -269 179 -267 171 -263 ct 
162 -259 155 -252 148 -243 ct 141 -235 135 -223 129 -210 ct 124 -196 119 -179 115 -159 ct 
112 -142 110 -126 110 -112 ct 110 -91 114 -76 121 -66 ct 128 -56 139 -51 153 -51 ct 
160 -51 168 -53 176 -56 ct 184 -60 192 -66 200 -74 ct 208 -83 215 -94 222 -108 ct 
228 -122 234 -140 238 -162 ct p ef
516 6 m  496 6 479 4 463 -1 ct 447 -6 434 -14 423 -24 ct 411 -33 403 -46 397 -61 ct 
391 -76 388 -94 388 -114 ct 388 -121 388 -129 389 -137 ct 390 -145 391 -153 393 -161 ct 
399 -192 408 -218 421 -239 ct 434 -260 449 -277 466 -289 ct 483 -302 501 -312 521 -317 ct 
541 -323 561 -326 581 -326 ct 602 -326 619 -323 634 -317 ct 649 -311 661 -303 671 -292 ct 
681 -282 688 -269 693 -253 ct 697 -238 700 -221 700 -203 ct 700 -194 699 -185 698 -175 ct 
697 -166 696 -156 694 -146 ct 694 -144 l  477 -144 l  475 -134 474 -124 474 -115 ct 
474 -105 475 -96 477 -88 ct 479 -80 483 -73 488 -68 ct 492 -62 498 -58 506 -54 ct 
513 -51 521 -50 531 -50 ct 538 -50 545 -50 552 -52 ct 559 -54 565 -56 571 -59 ct 
577 -62 583 -66 588 -71 ct 592 -76 596 -81 600 -88 ct 676 -81 l  671 -72 664 -62 655 -52 ct 
646 -42 635 -32 622 -24 ct 609 -15 594 -8 576 -2 ct 558 3 538 6 516 6 ct p
570 -274 m  562 -274 553 -272 545 -269 ct 536 -266 528 -262 521 -256 ct 513 -250 507 -241 501 -232 ct 
495 -222 491 -210 487 -196 ct 623 -196 l  624 -199 624 -202 624 -205 ct 624 -207 624 -210 624 -213 ct 
624 -233 619 -248 609 -258 ct 599 -269 586 -274 570 -274 ct p ef
938 -264 m  887 0 l  804 0 l  855 -264 l  780 -264 l  791 -320 l  866 -320 l 
871 -345 l  873 -357 877 -369 883 -381 ct 889 -394 898 -405 909 -415 ct 920 -424 934 -432 952 -439 ct 
969 -445 990 -448 1016 -448 ct 1036 -448 1054 -447 1070 -445 ct 1086 -444 1099 -442 1111 -440 ct 
1100 -385 l  1088 -387 1075 -388 1061 -389 ct 1047 -390 1033 -391 1019 -391 ct 
1008 -391 998 -390 990 -387 ct 983 -385 976 -381 971 -376 ct 966 -372 962 -366 959 -359 ct 
956 -353 954 -345 952 -337 ct 949 -320 l  1080 -320 l  1069 -264 l  938 -264 l 
p ef
1185 6 m  1159 6 1139 0 1124 -12 ct 1110 -25 1103 -42 1103 -66 ct 1103 -73 1104 -82 1106 -91 ct 
1109 -110 1116 -126 1124 -139 ct 1133 -152 1144 -162 1157 -170 ct 1169 -178 1183 -184 1199 -188 ct 
1215 -191 1231 -193 1249 -193 ct 1315 -193 l  1318 -209 l  1319 -214 1320 -219 1320 -223 ct 
1321 -227 1321 -231 1321 -235 ct 1321 -248 1318 -258 1312 -264 ct 1306 -269 1297 -272 1287 -272 ct 
1280 -272 1275 -272 1269 -270 ct 1264 -269 1259 -267 1255 -263 ct 1250 -260 1246 -256 1243 -250 ct 
1239 -244 1236 -237 1233 -229 ct 1148 -229 l  1153 -243 1159 -256 1167 -268 ct 
1176 -280 1186 -290 1198 -299 ct 1211 -307 1226 -314 1242 -319 ct 1259 -324 1279 -326 1300 -326 ct 
1334 -326 1360 -319 1378 -305 ct 1396 -290 1404 -269 1404 -241 ct 1404 -232 1403 -222 1401 -211 ct 
1379 -95 l  1378 -90 1377 -85 1376 -81 ct 1376 -77 1375 -73 1375 -69 ct 1375 -62 1377 -57 1380 -53 ct 
1383 -49 1388 -47 1396 -47 ct 1402 -47 1408 -48 1414 -49 ct 1406 -4 l  1401 -3 1396 -2 1392 -1 ct 
1388 0 1384 1 1380 2 ct 1376 2 1371 3 1367 3 ct 1362 3 1357 4 1351 4 ct 1333 4 1319 0 1311 -9 ct 
1302 -17 1298 -29 1298 -45 ct 1298 -47 1298 -49 1298 -51 ct 1299 -53 1299 -55 1299 -57 ct 
1297 -57 l  1290 -47 1282 -38 1274 -31 ct 1266 -23 1257 -16 1248 -11 ct 1239 -5 1230 -1 1219 2 ct 
1209 5 1198 6 1185 6 ct p
1306 -147 m  1266 -147 l  1258 -147 1249 -147 1241 -146 ct 1233 -145 1226 -142 1220 -139 ct 
1214 -136 1208 -131 1204 -124 ct 1199 -117 1196 -108 1194 -97 ct 1193 -91 1192 -86 1192 -81 ct 
1192 -62 1201 -52 1220 -52 ct 1231 -52 1241 -54 1250 -59 ct 1259 -63 1267 -69 1275 -77 ct 
1282 -84 1288 -92 1293 -102 ct 1298 -112 1301 -121 1303 -131 ct 1306 -147 l 
p ef
1605 -320 m  1570 -140 l  1568 -128 1567 -117 1567 -106 ct 1567 -91 1569 -79 1575 -70 ct 
1581 -61 1591 -56 1605 -56 ct 1613 -56 1622 -58 1630 -63 ct 1638 -67 1646 -74 1653 -82 ct 
1660 -90 1666 -100 1672 -111 ct 1677 -122 1681 -135 1684 -148 ct 1717 -320 l 
1800 -320 l  1752 -72 l  1750 -65 1749 -58 1748 -50 ct 1746 -43 1745 -36 1744 -29 ct 
1743 -23 1742 -17 1742 -12 ct 1741 -6 1740 -2 1740 0 ct 1661 0 l  1661 -2 1662 -6 1662 -11 ct 
1663 -17 1664 -22 1664 -29 ct 1665 -35 1666 -41 1667 -48 ct 1668 -54 1669 -59 1670 -64 ct 
1668 -64 l  1653 -39 1635 -22 1617 -11 ct 1598 0 1578 6 1558 6 ct 1543 6 1531 4 1521 0 ct 
1511 -4 1503 -9 1496 -16 ct 1490 -24 1485 -32 1482 -42 ct 1480 -52 1478 -63 1478 -75 ct 
1478 -88 1480 -102 1483 -117 ct 1522 -320 l  1605 -320 l  p ef
2027 -56 m  2132 -56 l  2121 0 l  1817 0 l  1828 -56 l  1944 -56 l  2008 -383 l 
1922 -383 l  1933 -439 l  2102 -439 l  2027 -56 l  p ef
2293 -264 m  2244 -264 l  2255 -320 l  2308 -320 l  2350 -404 l  2402 -404 l 
2386 -320 l  2500 -320 l  2489 -264 l  2375 -264 l  2345 -107 l  2344 -103 2343 -99 2342 -95 ct 
2342 -90 2341 -87 2341 -83 ct 2341 -78 2342 -74 2343 -71 ct 2345 -67 2347 -64 2350 -61 ct 
2353 -59 2358 -57 2364 -55 ct 2370 -54 2377 -53 2386 -53 ct 2398 -53 2411 -54 2424 -55 ct 
2437 -56 2450 -58 2463 -61 ct 2452 -5 l  2444 -4 2437 -3 2429 -1 ct 2422 0 2414 1 2407 2 ct 
2399 3 2391 3 2382 3 ct 2373 3 2364 3 2354 3 ct 2334 3 2318 1 2306 -3 ct 2293 -7 2283 -12 2276 -18 ct 
2269 -24 2264 -32 2261 -40 ct 2258 -49 2257 -58 2257 -67 ct 2257 -72 2257 -78 2258 -83 ct 
2259 -89 2260 -94 2260 -100 ct 2293 -264 l  p ef
pom
pum
16448 12706 t
210 0 m  210 -2 210 -4 210 -8 ct 211 -12 211 -17 212 -22 ct 212 -27 213 -32 214 -38 ct 
214 -43 215 -48 216 -52 ct 215 -52 l  207 -41 200 -32 192 -25 ct 184 -18 176 -12 167 -7 ct 
159 -3 149 1 140 3 ct 131 5 121 6 110 6 ct 95 6 83 3 71 -2 ct 60 -7 51 -14 44 -24 ct 
37 -34 32 -45 28 -59 ct 25 -72 23 -87 23 -103 ct 23 -112 23 -121 24 -130 ct 25 -140 27 -149 29 -159 ct 
33 -184 40 -206 49 -226 ct 57 -247 68 -264 81 -279 ct 93 -294 107 -305 124 -313 ct 
140 -321 158 -326 178 -326 ct 187 -326 195 -325 204 -323 ct 212 -321 220 -317 227 -313 ct 
234 -308 240 -303 246 -295 ct 251 -288 255 -279 258 -269 ct 258 -269 l  259 -271 259 -274 260 -278 ct 
261 -282 261 -286 262 -291 ct 263 -296 264 -301 265 -306 ct 266 -312 267 -317 268 -322 ct 
290 -439 l  373 -439 l  302 -70 l  299 -54 296 -40 295 -28 ct 293 -16 292 -7 291 0 ct 
210 0 l  p
238 -162 m  241 -178 243 -192 243 -205 ct 243 -217 241 -228 239 -236 ct 236 -244 232 -251 228 -256 ct 
223 -260 219 -264 213 -266 ct 208 -268 202 -269 196 -269 ct 187 -269 179 -267 171 -263 ct 
162 -259 155 -252 148 -243 ct 141 -235 135 -223 129 -210 ct 124 -196 119 -179 115 -159 ct 
112 -142 110 -126 110 -112 ct 110 -91 114 -76 121 -66 ct 128 -56 139 -51 153 -51 ct 
160 -51 168 -53 176 -56 ct 184 -60 192 -66 200 -74 ct 208 -83 215 -94 222 -108 ct 
228 -122 234 -140 238 -162 ct p ef
516 6 m  496 6 479 4 463 -1 ct 447 -6 434 -14 423 -24 ct 411 -33 403 -46 397 -61 ct 
391 -76 388 -94 388 -114 ct 388 -121 388 -129 389 -137 ct 390 -145 391 -153 393 -161 ct 
399 -192 408 -218 421 -239 ct 434 -260 449 -277 466 -289 ct 483 -302 501 -312 521 -317 ct 
541 -323 561 -326 581 -326 ct 602 -326 619 -323 634 -317 ct 649 -311 661 -303 671 -292 ct 
681 -282 688 -269 693 -253 ct 697 -238 700 -221 700 -203 ct 700 -194 699 -185 698 -175 ct 
697 -166 696 -156 694 -146 ct 694 -144 l  477 -144 l  475 -134 474 -124 474 -115 ct 
474 -105 475 -96 477 -88 ct 479 -80 483 -73 488 -68 ct 492 -62 498 -58 506 -54 ct 
513 -51 521 -50 531 -50 ct 538 -50 545 -50 552 -52 ct 559 -54 565 -56 571 -59 ct 
577 -62 583 -66 588 -71 ct 592 -76 596 -81 600 -88 ct 676 -81 l  671 -72 664 -62 655 -52 ct 
646 -42 635 -32 622 -24 ct 609 -15 594 -8 576 -2 ct 558 3 538 6 516 6 ct p
570 -274 m  562 -274 553 -272 545 -269 ct 536 -266 528 -262 521 -256 ct 513 -250 507 -241 501 -232 ct 
495 -222 491 -210 487 -196 ct 623 -196 l  624 -199 624 -202 624 -205 ct 624 -207 624 -210 624 -213 ct 
624 -233 619 -248 609 -258 ct 599 -269 586 -274 570 -274 ct p ef
938 -264 m  887 0 l  804 0 l  855 -264 l  780 -264 l  791 -320 l  866 -320 l 
871 -345 l  873 -357 877 -369 883 -381 ct 889 -394 898 -405 909 -415 ct 920 -424 934 -432 952 -439 ct 
969 -445 990 -448 1016 -448 ct 1036 -448 1054 -447 1070 -445 ct 1086 -444 1099 -442 1111 -440 ct 
1100 -385 l  1088 -387 1075 -388 1061 -389 ct 1047 -390 1033 -391 1019 -391 ct 
1008 -391 998 -390 990 -387 ct 983 -385 976 -381 971 -376 ct 966 -372 962 -366 959 -359 ct 
956 -353 954 -345 952 -337 ct 949 -320 l  1080 -320 l  1069 -264 l  938 -264 l 
p ef
1185 6 m  1159 6 1139 0 1124 -12 ct 1110 -25 1103 -42 1103 -66 ct 1103 -73 1104 -82 1106 -91 ct 
1109 -110 1116 -126 1124 -139 ct 1133 -152 1144 -162 1157 -170 ct 1169 -178 1183 -184 1199 -188 ct 
1215 -191 1231 -193 1249 -193 ct 1315 -193 l  1318 -209 l  1319 -214 1320 -219 1320 -223 ct 
1321 -227 1321 -231 1321 -235 ct 1321 -248 1318 -258 1312 -264 ct 1306 -269 1297 -272 1287 -272 ct 
1280 -272 1275 -272 1269 -270 ct 1264 -269 1259 -267 1255 -263 ct 1250 -260 1246 -256 1243 -250 ct 
1239 -244 1236 -237 1233 -229 ct 1148 -229 l  1153 -243 1159 -256 1167 -268 ct 
1176 -280 1186 -290 1198 -299 ct 1211 -307 1226 -314 1242 -319 ct 1259 -324 1279 -326 1300 -326 ct 
1334 -326 1360 -319 1378 -305 ct 1396 -290 1404 -269 1404 -241 ct 1404 -232 1403 -222 1401 -211 ct 
1379 -95 l  1378 -90 1377 -85 1376 -81 ct 1376 -77 1375 -73 1375 -69 ct 1375 -62 1377 -57 1380 -53 ct 
1383 -49 1388 -47 1396 -47 ct 1402 -47 1408 -48 1414 -49 ct 1406 -4 l  1401 -3 1396 -2 1392 -1 ct 
1388 0 1384 1 1380 2 ct 1376 2 1371 3 1367 3 ct 1362 3 1357 4 1351 4 ct 1333 4 1319 0 1311 -9 ct 
1302 -17 1298 -29 1298 -45 ct 1298 -47 1298 -49 1298 -51 ct 1299 -53 1299 -55 1299 -57 ct 
1297 -57 l  1290 -47 1282 -38 1274 -31 ct 1266 -23 1257 -16 1248 -11 ct 1239 -5 1230 -1 1219 2 ct 
1209 5 1198 6 1185 6 ct p
1306 -147 m  1266 -147 l  1258 -147 1249 -147 1241 -146 ct 1233 -145 1226 -142 1220 -139 ct 
1214 -136 1208 -131 1204 -124 ct 1199 -117 1196 -108 1194 -97 ct 1193 -91 1192 -86 1192 -81 ct 
1192 -62 1201 -52 1220 -52 ct 1231 -52 1241 -54 1250 -59 ct 1259 -63 1267 -69 1275 -77 ct 
1282 -84 1288 -92 1293 -102 ct 1298 -112 1301 -121 1303 -131 ct 1306 -147 l 
p ef
1605 -320 m  1570 -140 l  1568 -128 1567 -117 1567 -106 ct 1567 -91 1569 -79 1575 -70 ct 
1581 -61 1591 -56 1605 -56 ct 1613 -56 1622 -58 1630 -63 ct 1638 -67 1646 -74 1653 -82 ct 
1660 -90 1666 -100 1672 -111 ct 1677 -122 1681 -135 1684 -148 ct 1717 -320 l 
1800 -320 l  1752 -72 l  1750 -65 1749 -58 1748 -50 ct 1746 -43 1745 -36 1744 -29 ct 
1743 -23 1742 -17 1742 -12 ct 1741 -6 1740 -2 1740 0 ct 1661 0 l  1661 -2 1662 -6 1662 -11 ct 
1663 -17 1664 -22 1664 -29 ct 1665 -35 1666 -41 1667 -48 ct 1668 -54 1669 -59 1670 -64 ct 
1668 -64 l  1653 -39 1635 -22 1617 -11 ct 1598 0 1578 6 1558 6 ct 1543 6 1531 4 1521 0 ct 
1511 -4 1503 -9 1496 -16 ct 1490 -24 1485 -32 1482 -42 ct 1480 -52 1478 -63 1478 -75 ct 
1478 -88 1480 -102 1483 -117 ct 1522 -320 l  1605 -320 l  p ef
2027 -56 m  2132 -56 l  2121 0 l  1817 0 l  1828 -56 l  1944 -56 l  2008 -383 l 
1922 -383 l  1933 -439 l  2102 -439 l  2027 -56 l  p ef
2293 -264 m  2244 -264 l  2255 -320 l  2308 -320 l  2350 -404 l  2402 -404 l 
2386 -320 l  2500 -320 l  2489 -264 l  2375 -264 l  2345 -107 l  2344 -103 2343 -99 2342 -95 ct 
2342 -90 2341 -87 2341 -83 ct 2341 -78 2342 -74 2343 -71 ct 2345 -67 2347 -64 2350 -61 ct 
2353 -59 2358 -57 2364 -55 ct 2370 -54 2377 -53 2386 -53 ct 2398 -53 2411 -54 2424 -55 ct 
2437 -56 2450 -58 2463 -61 ct 2452 -5 l  2444 -4 2437 -3 2429 -1 ct 2422 0 2414 1 2407 2 ct 
2399 3 2391 3 2382 3 ct 2373 3 2364 3 2354 3 ct 2334 3 2318 1 2306 -3 ct 2293 -7 2283 -12 2276 -18 ct 
2269 -24 2264 -32 2261 -40 ct 2258 -49 2257 -58 2257 -67 ct 2257 -72 2257 -78 2258 -83 ct 
2259 -89 2260 -94 2260 -100 ct 2293 -264 l  p ef
pom
pum
25014 10821 t
10 0 m  12 -7 14 -16 17 -28 ct 20 -40 23 -54 26 -70 ct 98 -439 l  181 -439 l 
158 -322 l  157 -317 156 -312 155 -307 ct 154 -302 153 -296 152 -291 ct 151 -286 150 -282 149 -278 ct 
148 -274 148 -271 147 -270 ct 148 -270 l  155 -280 162 -289 171 -296 ct 179 -303 188 -309 197 -313 ct 
206 -318 215 -321 225 -323 ct 235 -325 244 -326 253 -326 ct 268 -326 281 -323 292 -318 ct 
303 -313 313 -306 320 -297 ct 327 -288 332 -276 336 -263 ct 339 -250 341 -236 341 -220 ct 
341 -211 340 -201 339 -191 ct 338 -181 337 -170 334 -160 ct 330 -136 323 -114 314 -93 ct 
305 -73 294 -56 281 -41 ct 268 -26 254 -15 238 -6 ct 222 2 204 6 186 6 ct 176 6 168 5 160 3 ct 
151 1 144 -3 137 -7 ct 130 -12 124 -18 118 -25 ct 113 -32 109 -41 106 -52 ct 105 -52 l 
104 -48 103 -43 102 -38 ct 101 -32 99 -27 98 -22 ct 96 -17 95 -12 94 -8 ct 93 -4 91 -2 91 0 ct 
10 0 l  p
126 -162 m  123 -145 121 -131 121 -118 ct 121 -105 123 -95 125 -86 ct 128 -77 132 -70 136 -65 ct 
140 -60 145 -56 151 -54 ct 156 -52 162 -51 167 -51 ct 186 -51 203 -60 217 -78 ct 
231 -96 241 -123 248 -160 ct 251 -178 253 -195 253 -209 ct 253 -230 249 -245 242 -255 ct 
234 -265 223 -270 209 -270 ct 202 -270 195 -268 187 -264 ct 179 -261 171 -255 163 -247 ct 
156 -239 149 -228 142 -214 ct 135 -200 130 -183 126 -162 ct p ef
700 -251 m  691 -252 682 -254 672 -255 ct 662 -256 651 -256 639 -256 ct 622 -256 607 -253 593 -246 ct 
579 -240 567 -231 556 -219 ct 546 -208 537 -194 529 -179 ct 522 -163 517 -147 514 -130 ct 
489 0 l  406 0 l  446 -207 l  449 -222 451 -237 452 -252 ct 453 -268 453 -281 453 -293 ct 
453 -299 453 -304 453 -308 ct 453 -313 453 -317 453 -320 ct 533 -320 l  533 -315 533 -309 534 -303 ct 
534 -296 534 -290 534 -283 ct 534 -277 534 -272 534 -267 ct 534 -262 534 -257 533 -253 ct 
534 -253 l  541 -264 547 -274 555 -283 ct 562 -292 571 -300 580 -306 ct 590 -312 601 -317 613 -321 ct 
625 -324 638 -326 654 -326 ct 665 -326 676 -326 686 -325 ct 697 -324 706 -322 714 -321 ct 
700 -251 l  p ef
822 6 m  796 6 776 0 761 -12 ct 747 -25 740 -42 740 -66 ct 740 -73 741 -82 743 -91 ct 
746 -110 753 -126 761 -139 ct 770 -152 781 -162 794 -170 ct 806 -178 820 -184 836 -188 ct 
852 -191 868 -193 886 -193 ct 952 -193 l  955 -209 l  956 -214 957 -219 957 -223 ct 
958 -227 958 -231 958 -235 ct 958 -248 955 -258 949 -264 ct 943 -269 934 -272 924 -272 ct 
917 -272 912 -272 906 -270 ct 901 -269 896 -267 892 -263 ct 887 -260 883 -256 880 -250 ct 
876 -244 873 -237 870 -229 ct 785 -229 l  790 -243 796 -256 804 -268 ct 813 -280 823 -290 835 -299 ct 
848 -307 863 -314 879 -319 ct 896 -324 916 -326 937 -326 ct 971 -326 997 -319 1015 -305 ct 
1033 -290 1041 -269 1041 -241 ct 1041 -232 1040 -222 1038 -211 ct 1016 -95 l 
1015 -90 1014 -85 1013 -81 ct 1013 -77 1012 -73 1012 -69 ct 1012 -62 1014 -57 1017 -53 ct 
1020 -49 1025 -47 1033 -47 ct 1039 -47 1045 -48 1051 -49 ct 1043 -4 l  1038 -3 1033 -2 1029 -1 ct 
1025 0 1021 1 1017 2 ct 1013 2 1008 3 1004 3 ct 999 3 994 4 988 4 ct 970 4 956 0 948 -9 ct 
939 -17 935 -29 935 -45 ct 935 -47 935 -49 935 -51 ct 936 -53 936 -55 936 -57 ct 
934 -57 l  927 -47 919 -38 911 -31 ct 903 -23 894 -16 885 -11 ct 876 -5 867 -1 856 2 ct 
846 5 835 6 822 6 ct p
943 -147 m  903 -147 l  895 -147 886 -147 878 -146 ct 870 -145 863 -142 857 -139 ct 
851 -136 845 -131 841 -124 ct 836 -117 833 -108 831 -97 ct 830 -91 829 -86 829 -81 ct 
829 -62 838 -52 857 -52 ct 868 -52 878 -54 887 -59 ct 896 -63 904 -69 912 -77 ct 
919 -84 925 -92 930 -102 ct 935 -112 938 -121 940 -131 ct 943 -147 l  p ef
1300 0 m  1336 -183 l  1339 -198 1340 -210 1340 -221 ct 1340 -236 1337 -246 1331 -253 ct 
1325 -261 1315 -264 1301 -264 ct 1291 -264 1281 -262 1272 -257 ct 1263 -253 1255 -247 1247 -238 ct 
1240 -230 1233 -220 1228 -209 ct 1222 -198 1218 -185 1216 -172 ct 1182 0 l  1099 0 l 
1147 -248 l  1149 -255 1150 -262 1151 -270 ct 1153 -277 1154 -284 1155 -291 ct 
1156 -297 1157 -303 1158 -308 ct 1158 -314 1159 -318 1159 -320 ct 1238 -320 l 
1238 -318 1238 -314 1237 -309 ct 1237 -303 1236 -298 1235 -291 ct 1234 -285 1233 -279 1232 -273 ct 
1231 -266 1231 -261 1230 -257 ct 1231 -257 l  1247 -281 1264 -299 1283 -310 ct 
1303 -321 1324 -326 1347 -326 ct 1375 -326 1395 -319 1408 -305 ct 1421 -291 1427 -271 1427 -246 ct 
1427 -233 1426 -219 1423 -203 ct 1383 0 l  1300 0 l  p ef
1603 6 m  1582 6 1564 3 1548 -2 ct 1532 -8 1519 -16 1509 -26 ct 1499 -36 1491 -49 1486 -63 ct 
1481 -78 1478 -94 1478 -112 ct 1478 -119 1479 -127 1480 -134 ct 1480 -142 1482 -150 1483 -158 ct 
1488 -185 1496 -209 1507 -229 ct 1518 -250 1532 -268 1547 -282 ct 1563 -296 1581 -307 1602 -315 ct 
1622 -322 1644 -326 1669 -326 ct 1689 -326 1707 -323 1722 -318 ct 1737 -312 1749 -305 1759 -295 ct 
1769 -285 1776 -274 1781 -261 ct 1785 -248 1788 -234 1788 -219 ct 1788 -217 l 
1703 -217 l  1704 -233 1701 -245 1693 -255 ct 1686 -264 1673 -269 1656 -269 ct 
1634 -269 1616 -260 1602 -241 ct 1588 -223 1578 -196 1571 -161 ct 1567 -144 1566 -128 1566 -114 ct 
1566 -72 1582 -51 1615 -51 ct 1630 -51 1645 -56 1657 -65 ct 1670 -75 1680 -89 1686 -108 ct 
1768 -108 l  1764 -93 1756 -79 1747 -65 ct 1737 -51 1725 -39 1711 -29 ct 1697 -18 1681 -10 1663 -3 ct 
1645 3 1625 6 1603 6 ct p ef
1956 -257 m  1972 -281 1989 -299 2008 -310 ct 2027 -321 2049 -326 2072 -326 ct 
2087 -326 2099 -325 2110 -321 ct 2120 -317 2128 -311 2134 -305 ct 2141 -298 2145 -289 2148 -280 ct 
2151 -270 2152 -259 2152 -247 ct 2152 -241 2152 -233 2151 -226 ct 2150 -219 2149 -211 2147 -203 ct 
2108 -1 l  2025 -1 l  2061 -184 l  2063 -191 2064 -198 2064 -204 ct 2065 -211 2066 -216 2066 -222 ct 
2066 -236 2063 -246 2057 -253 ct 2051 -260 2040 -264 2025 -264 ct 2015 -264 2006 -262 1997 -257 ct 
1988 -253 1979 -247 1972 -238 ct 1965 -230 1958 -220 1953 -209 ct 1947 -198 1943 -185 1941 -172 ct 
1907 -1 l  1824 -1 l  1909 -440 l  1992 -440 l  1969 -320 l  1968 -313 1967 -307 1965 -301 ct 
1964 -294 1962 -288 1961 -283 ct 1960 -277 1958 -272 1957 -267 ct 1956 -263 1955 -259 1955 -257 ct 
1956 -257 l  p ef
2388 0 m  2424 -183 l  2427 -198 2428 -210 2428 -221 ct 2428 -236 2425 -246 2419 -253 ct 
2413 -261 2403 -264 2389 -264 ct 2379 -264 2369 -262 2360 -257 ct 2351 -253 2343 -247 2335 -238 ct 
2328 -230 2321 -220 2316 -209 ct 2310 -198 2306 -185 2304 -172 ct 2270 0 l  2187 0 l 
2235 -248 l  2237 -255 2238 -262 2239 -270 ct 2241 -277 2242 -284 2243 -291 ct 
2244 -297 2245 -303 2246 -308 ct 2246 -314 2247 -318 2247 -320 ct 2326 -320 l 
2326 -318 2326 -314 2325 -309 ct 2325 -303 2324 -298 2323 -291 ct 2322 -285 2321 -279 2320 -273 ct 
2319 -266 2319 -261 2318 -257 ct 2319 -257 l  2335 -281 2352 -299 2371 -310 ct 
2391 -321 2412 -326 2435 -326 ct 2463 -326 2483 -319 2496 -305 ct 2509 -291 2515 -271 2515 -246 ct 
2515 -233 2514 -219 2511 -203 ct 2471 0 l  2388 0 l  p ef
2636 6 m  2610 6 2590 0 2575 -12 ct 2561 -25 2554 -42 2554 -66 ct 2554 -73 2555 -82 2557 -91 ct 
2560 -110 2567 -126 2575 -139 ct 2584 -152 2595 -162 2608 -170 ct 2620 -178 2634 -184 2650 -188 ct 
2666 -191 2682 -193 2700 -193 ct 2766 -193 l  2769 -209 l  2770 -214 2771 -219 2771 -223 ct 
2772 -227 2772 -231 2772 -235 ct 2772 -248 2769 -258 2763 -264 ct 2757 -269 2748 -272 2738 -272 ct 
2731 -272 2726 -272 2720 -270 ct 2715 -269 2710 -267 2706 -263 ct 2701 -260 2697 -256 2694 -250 ct 
2690 -244 2687 -237 2684 -229 ct 2599 -229 l  2604 -243 2610 -256 2618 -268 ct 
2627 -280 2637 -290 2649 -299 ct 2662 -307 2677 -314 2693 -319 ct 2710 -324 2730 -326 2751 -326 ct 
2785 -326 2811 -319 2829 -305 ct 2847 -290 2855 -269 2855 -241 ct 2855 -232 2854 -222 2852 -211 ct 
2830 -95 l  2829 -90 2828 -85 2827 -81 ct 2827 -77 2826 -73 2826 -69 ct 2826 -62 2828 -57 2831 -53 ct 
2834 -49 2839 -47 2847 -47 ct 2853 -47 2859 -48 2865 -49 ct 2857 -4 l  2852 -3 2847 -2 2843 -1 ct 
2839 0 2835 1 2831 2 ct 2827 2 2822 3 2818 3 ct 2813 3 2808 4 2802 4 ct 2784 4 2770 0 2762 -9 ct 
2753 -17 2749 -29 2749 -45 ct 2749 -47 2749 -49 2749 -51 ct 2750 -53 2750 -55 2750 -57 ct 
2748 -57 l  2741 -47 2733 -38 2725 -31 ct 2717 -23 2708 -16 2699 -11 ct 2690 -5 2681 -1 2670 2 ct 
2660 5 2649 6 2636 6 ct p
2757 -147 m  2717 -147 l  2709 -147 2700 -147 2692 -146 ct 2684 -145 2677 -142 2671 -139 ct 
2665 -136 2659 -131 2655 -124 ct 2650 -117 2647 -108 2645 -97 ct 2644 -91 2643 -86 2643 -81 ct 
2643 -62 2652 -52 2671 -52 ct 2682 -52 2692 -54 2701 -59 ct 2710 -63 2718 -69 2726 -77 ct 
2733 -84 2739 -92 2744 -102 ct 2749 -112 2752 -121 2754 -131 ct 2757 -147 l 
p ef
3018 0 m  3056 -195 l  3058 -206 3060 -217 3061 -225 ct 3062 -234 3063 -241 3063 -247 ct 
3063 -256 3061 -263 3058 -267 ct 3055 -271 3051 -273 3045 -273 ct 3040 -273 3035 -271 3030 -266 ct 
3025 -261 3021 -254 3016 -245 ct 3012 -237 3007 -226 3004 -214 ct 3000 -201 2996 -187 2993 -172 ct 
2960 0 l  2892 0 l  2941 -252 l  2942 -258 2944 -266 2945 -273 ct 2946 -280 2947 -287 2948 -294 ct 
2949 -301 2950 -306 2951 -311 ct 2952 -316 2952 -319 2952 -320 ct 3014 -320 l 
3014 -319 3014 -317 3013 -313 ct 3013 -308 3012 -304 3011 -299 ct 3010 -293 3010 -288 3009 -283 ct 
3008 -277 3007 -272 3006 -268 ct 3006 -268 l  3011 -276 3015 -283 3020 -290 ct 
3025 -297 3030 -304 3036 -309 ct 3042 -314 3049 -318 3057 -321 ct 3064 -324 3072 -326 3082 -326 ct 
3099 -326 3111 -321 3118 -312 ct 3124 -302 3128 -288 3128 -268 ct 3128 -268 l 
3133 -277 3139 -286 3145 -293 ct 3150 -300 3156 -306 3163 -311 ct 3169 -316 3176 -320 3184 -322 ct 
3191 -325 3200 -326 3209 -326 ct 3226 -326 3239 -321 3247 -312 ct 3255 -303 3259 -289 3259 -269 ct 
3259 -262 3258 -253 3257 -244 ct 3256 -235 3254 -225 3252 -213 ct 3211 0 l  3144 0 l 
3181 -195 l  3184 -206 3185 -217 3186 -225 ct 3188 -234 3188 -241 3188 -247 ct 
3188 -256 3187 -263 3184 -267 ct 3181 -271 3177 -273 3171 -273 ct 3161 -273 3151 -265 3142 -249 ct 
3133 -233 3126 -210 3120 -178 ct 3085 0 l  3018 0 l  p ef
3417 6 m  3397 6 3380 4 3364 -1 ct 3348 -6 3335 -14 3324 -24 ct 3312 -33 3304 -46 3298 -61 ct 
3292 -76 3289 -94 3289 -114 ct 3289 -121 3289 -129 3290 -137 ct 3291 -145 3292 -153 3294 -161 ct 
3300 -192 3309 -218 3322 -239 ct 3335 -260 3350 -277 3367 -289 ct 3384 -302 3402 -312 3422 -317 ct 
3442 -323 3462 -326 3482 -326 ct 3503 -326 3520 -323 3535 -317 ct 3550 -311 3562 -303 3572 -292 ct 
3582 -282 3589 -269 3594 -253 ct 3598 -238 3601 -221 3601 -203 ct 3601 -194 3600 -185 3599 -175 ct 
3598 -166 3597 -156 3595 -146 ct 3595 -144 l  3378 -144 l  3376 -134 3375 -124 3375 -115 ct 
3375 -105 3376 -96 3378 -88 ct 3380 -80 3384 -73 3389 -68 ct 3393 -62 3399 -58 3407 -54 ct 
3414 -51 3422 -50 3432 -50 ct 3439 -50 3446 -50 3453 -52 ct 3460 -54 3466 -56 3472 -59 ct 
3478 -62 3484 -66 3489 -71 ct 3493 -76 3497 -81 3501 -88 ct 3577 -81 l  3572 -72 3565 -62 3556 -52 ct 
3547 -42 3536 -32 3523 -24 ct 3510 -15 3495 -8 3477 -2 ct 3459 3 3439 6 3417 6 ct 
p
3471 -274 m  3463 -274 3454 -272 3446 -269 ct 3437 -266 3429 -262 3422 -256 ct 
3414 -250 3408 -241 3402 -232 ct 3396 -222 3392 -210 3388 -196 ct 3524 -196 l 
3525 -199 3525 -202 3525 -205 ct 3525 -207 3525 -210 3525 -213 ct 3525 -233 3520 -248 3510 -258 ct 
3500 -269 3487 -274 3471 -274 ct p ef
pom
0.933 0.933 0.933 c 17476 12848 m  22167 12848 l  23731 16274 l  22167 19700 l 
17476 19700 l  19038 16274 l  17476 12848 l  p ef
90.79843 lw 0.503 0.503 0.503 c 17475 12847 m  22166 12847 l  23731 16273 l 
22166 19700 l  17475 19700 l  19038 16273 l  17475 12847 l  pc
pum
18718 16485 t
pom
pum
19660 16485 t
0.402 0.402 0.402 c 54 1 m  54 -8 55 -20 56 -36 ct 56 -52 57 -70 57 -90 ct 57 -569 l 
165 -569 l  165 -418 l  165 -411 165 -405 164 -398 ct 164 -391 164 -384 164 -378 ct 
164 -372 164 -366 164 -361 ct 164 -356 164 -352 164 -350 ct 165 -350 l  171 -363 178 -375 187 -384 ct 
197 -393 206 -401 217 -407 ct 228 -412 239 -416 251 -419 ct 263 -422 275 -423 286 -423 ct 
312 -423 334 -417 353 -407 ct 372 -396 387 -381 399 -362 ct 411 -343 420 -320 426 -294 ct 
432 -267 434 -238 434 -207 ct 434 -176 431 -147 424 -121 ct 418 -95 408 -72 395 -53 ct 
383 -34 367 -19 348 -8 ct 329 3 307 8 283 8 ct 271 8 260 7 248 4 ct 237 1 226 -3 216 -9 ct 
206 -15 196 -23 188 -32 ct 179 -42 172 -53 165 -67 ct 164 -67 l  164 -62 164 -56 163 -49 ct 
163 -42 162 -35 162 -28 ct 161 -22 161 -16 160 -10 ct 159 -5 159 -1 158 1 ct 54 1 l 
p
163 -210 m  163 -182 166 -159 171 -140 ct 176 -122 183 -107 191 -96 ct 199 -85 207 -77 217 -73 ct 
227 -68 236 -66 245 -66 ct 269 -66 288 -77 302 -101 ct 315 -125 322 -160 322 -207 ct 
322 -232 320 -254 316 -272 ct 313 -290 307 -305 301 -316 ct 294 -328 286 -336 276 -342 ct 
267 -347 256 -350 244 -350 ct 235 -350 226 -347 216 -343 ct 207 -339 198 -331 190 -321 ct 
182 -310 176 -296 171 -278 ct 166 -260 163 -237 163 -210 ct p ef
886 -326 m  874 -328 861 -329 848 -331 ct 835 -332 820 -333 805 -333 ct 783 -333 764 -328 748 -320 ct 
732 -311 718 -299 707 -284 ct 696 -269 688 -252 683 -232 ct 677 -212 674 -191 674 -168 ct 
674 0 l  567 0 l  567 -269 l  567 -283 566 -298 565 -313 ct 563 -328 561 -342 559 -355 ct 
557 -368 555 -380 553 -390 ct 550 -401 549 -409 547 -415 ct 651 -415 l  653 -410 654 -403 656 -396 ct 
658 -389 659 -382 661 -374 ct 663 -366 664 -358 665 -350 ct 667 -343 668 -335 669 -328 ct 
670 -328 l  676 -342 682 -356 689 -367 ct 696 -379 706 -389 716 -397 ct 727 -405 740 -412 755 -416 ct 
769 -421 787 -423 807 -423 ct 821 -423 835 -422 849 -421 ct 863 -420 875 -418 886 -416 ct 
886 -326 l  p ef
1110 8 m  1091 8 1073 5 1057 0 ct 1041 -6 1028 -14 1017 -25 ct 1006 -35 997 -48 992 -64 ct 
986 -80 983 -97 983 -117 ct 983 -142 987 -163 995 -180 ct 1003 -196 1014 -210 1029 -220 ct 
1043 -231 1060 -238 1080 -243 ct 1099 -248 1120 -250 1143 -250 ct 1228 -250 l 
1228 -272 l  1228 -287 1227 -300 1224 -310 ct 1222 -320 1218 -329 1213 -335 ct 
1208 -342 1202 -346 1195 -349 ct 1188 -352 1180 -353 1172 -353 ct 1164 -353 1156 -352 1150 -350 ct 
1143 -349 1137 -346 1132 -341 ct 1128 -337 1124 -331 1120 -324 ct 1117 -317 1115 -308 1114 -297 ct 
1001 -297 l  1005 -315 1010 -332 1018 -348 ct 1026 -363 1036 -376 1050 -388 ct 
1064 -399 1082 -407 1102 -414 ct 1123 -420 1148 -423 1176 -423 ct 1228 -423 1267 -410 1295 -385 ct 
1322 -359 1336 -322 1336 -273 ct 1336 -123 l  1336 -113 1337 -104 1338 -96 ct 
1338 -89 1340 -82 1342 -77 ct 1345 -72 1348 -68 1353 -65 ct 1357 -62 1363 -61 1370 -61 ct 
1379 -61 1386 -62 1394 -63 ct 1394 -5 l  1388 -4 1382 -2 1377 -1 ct 1372 0 1367 1 1361 2 ct 
1356 3 1351 4 1345 4 ct 1339 5 1333 5 1325 5 ct 1298 5 1278 -2 1265 -15 ct 1252 -28 1244 -48 1242 -74 ct 
1239 -74 l  1232 -61 1225 -50 1216 -39 ct 1208 -29 1199 -21 1188 -14 ct 1178 -7 1166 -1 1153 2 ct 
1141 6 1126 8 1110 8 ct p
1228 -191 m  1177 -191 l  1165 -191 1155 -190 1145 -189 ct 1135 -187 1126 -185 1119 -180 ct 
1111 -176 1106 -169 1101 -160 ct 1097 -152 1095 -140 1095 -126 ct 1095 -106 1099 -91 1107 -82 ct 
1115 -72 1126 -67 1141 -67 ct 1155 -67 1167 -70 1178 -76 ct 1189 -82 1198 -90 1205 -99 ct 
1213 -109 1219 -120 1223 -132 ct 1226 -144 1228 -157 1228 -170 ct 1228 -191 l 
p ef
1731 0 m  1731 -237 l  1731 -273 1726 -300 1716 -317 ct 1707 -334 1690 -342 1666 -342 ct 
1653 -342 1641 -339 1630 -333 ct 1619 -328 1610 -319 1602 -309 ct 1595 -298 1589 -286 1584 -271 ct 
1580 -256 1578 -240 1578 -222 ct 1578 0 l  1470 0 l  1470 -322 l  1470 -331 1470 -341 1470 -350 ct 
1470 -360 1469 -369 1469 -377 ct 1469 -386 1468 -393 1468 -400 ct 1468 -407 1467 -412 1467 -415 ct 
1570 -415 l  1570 -412 1571 -407 1571 -400 ct 1572 -394 1572 -386 1573 -378 ct 
1573 -370 1574 -361 1574 -353 ct 1574 -345 1575 -338 1575 -332 ct 1576 -332 l 
1591 -364 1609 -387 1631 -402 ct 1653 -416 1679 -423 1710 -423 ct 1732 -423 1752 -419 1768 -412 ct 
1784 -405 1798 -394 1808 -381 ct 1818 -367 1826 -350 1831 -331 ct 1836 -311 1839 -289 1839 -263 ct 
1839 0 l  1731 0 l  p ef
2125 8 m  2092 8 2064 3 2039 -7 ct 2014 -18 1994 -32 1977 -51 ct 1961 -69 1949 -92 1941 -118 ct 
1932 -144 1928 -173 1928 -205 ct 1928 -240 1933 -271 1942 -298 ct 1951 -325 1964 -347 1980 -366 ct 
1997 -385 2018 -399 2043 -408 ct 2067 -418 2096 -423 2127 -423 ct 2154 -423 2178 -419 2199 -412 ct 
2219 -405 2237 -395 2253 -382 ct 2268 -369 2280 -354 2289 -337 ct 2299 -320 2305 -302 2309 -282 ct 
2200 -282 l  2197 -302 2189 -318 2177 -331 ct 2165 -343 2147 -349 2125 -349 ct 
2096 -349 2075 -337 2061 -313 ct 2048 -289 2041 -255 2041 -209 ct 2041 -114 2070 -66 2126 -66 ct 
2147 -66 2164 -72 2178 -84 ct 2192 -97 2200 -116 2203 -140 ct 2312 -140 l  2309 -121 2303 -102 2294 -84 ct 
2285 -66 2273 -51 2257 -37 ct 2242 -23 2223 -12 2201 -4 ct 2179 4 2154 8 2125 8 ct 
p ef
2519 -332 m  2534 -364 2552 -387 2574 -402 ct 2596 -416 2622 -423 2653 -423 ct 
2678 -423 2699 -419 2715 -411 ct 2732 -403 2745 -391 2755 -377 ct 2765 -363 2771 -346 2776 -326 ct 
2780 -307 2782 -286 2782 -263 ct 2782 0 l  2674 0 l  2674 -238 l  2674 -254 2673 -269 2672 -282 ct 
2670 -295 2666 -305 2662 -314 ct 2657 -323 2650 -330 2641 -335 ct 2633 -340 2621 -342 2608 -342 ct 
2595 -342 2583 -339 2572 -333 ct 2562 -328 2553 -319 2545 -309 ct 2537 -298 2531 -286 2527 -271 ct 
2523 -256 2521 -240 2521 -222 ct 2521 0 l  2413 0 l  2413 -570 l  2521 -570 l 
2521 -414 l  2521 -406 2521 -398 2520 -389 ct 2520 -381 2520 -373 2519 -366 ct 
2519 -359 2519 -352 2518 -346 ct 2518 -340 2518 -336 2518 -332 ct 2519 -332 l 
p ef
pom
0.343 0.617 0.113 c 16276 15417 m  16276 13490 24842 14775 24842 12847 ct 
ps
0 12041 t 
pom
count op_count sub {pop} repeat countdictstack dict_count sub {end} repeat b4_inc_state restore
%%PageTrailer
%%Trailer
%%EOF
